-------------------------------------------------------------------------------
Test set: menuapp.RulesEditTest
-------------------------------------------------------------------------------
Tests run: 2, Failures: 0, Errors: 0, Skipped: 1, Time elapsed: 20.167 sec
